Climate Change Module
…
In 1958, Dr. Charles David Keeling (1928-2005), a scientist at Scripps Institute of Oceanography, began collecting data on atmospheric CO2 concentration at the Mauna Loa Observatory located in Hawaii. This dataset allowed us to understand the degree to which climate change is human-caused through our burning of fossil fuels and release of CO2 into the atmosphere. Due to his scientific achievements, Dr. Keeling was awarded the National Medal of Science by President George W. Bush in 2002. This is the highest award for lifetime scientific achievement that can be granted in the U.S. Today, you get to analyze this same dataset, except that you have more data than was available to Dr. Keeling and his colleagues because your dataset extends up to the current time.

To read the code, you will use a new function called read_table. It is similar to read_csv except it looks for spaces between column entries rather than commas (remember that csv stands for comma-separated values). Others include read_tsv, which uses tabs to separate entries. You can discover the separation type by putting https://gml.noaa.gov/webdata/ccgg/trends/co2/co2_mm_mlo.txt into your web browser and examining the file. The code also includes an argument for comment, which denotes the character used to define a line in the file as being a comment rather than data or a header. The file also reveals that the column headers are on lines with a comment character, so they won’t be read. You will use the argument col_names to define the headers manually. Finally, NA values are defined by the numbers -1 and -99, so they need to be defined using the na argument (otherwise, they will be read as numeric values).

co2 <-  read_table("https://gml.noaa.gov/webdata/ccgg/trends/co2/co2_mm_mlo.txt", 
                  comment="#",
                  col_names = c("year", "month", "decimal_date",
                                "monthly_average",
                                "deseasonalized", "days", "sd_days",
                                "unc_month_mean"),
                  na = c("-1", "-99.99"))
co2

# A tibble: 803 × 8
    year month decimal_date monthly_average deseasonalized  days sd_days
   <dbl> <dbl>        <dbl>           <dbl>          <dbl> <dbl>   <dbl>
 1  1958     3        1958.            316.           314.    NA   -9.99
 2  1958     4        1958.            317.           315.    NA   -9.99
 3  1958     5        1958.            318.           315.    NA   -9.99
 4  1958     6        1958.            317.           315.    NA   -9.99
 5  1958     7        1959.            316.           315.    NA   -9.99
 6  1958     8        1959.            315.           316.    NA   -9.99
 7  1958     9        1959.            313.           316.    NA   -9.99
 8  1958    10        1959.            312.           315.    NA   -9.99
 9  1958    11        1959.            313.           315.    NA   -9.99
10  1958    12        1959.            315.           315.    NA   -9.99
# ℹ 793 more rows
# ℹ 1 more variable: unc_month_mean <dbl>
…
temp_data <- read_table("https://data.giss.nasa.gov/gistemp/graphs/graph_data/Global_Mean_Estimates_based_on_Land_and_Ocean_Data/graph.txt",
                        comment = "#",
                        col_names = c("Year", "No_Smoothing", "Lowess(5)"),
                        skip = 5)

── Column specification ────────────────────────────────────────────────────────
cols(
  Year = col_double(),
  No_Smoothing = col_double(),
  `Lowess(5)` = col_double()
)

temp_data

# A tibble: 145 × 3
    Year No_Smoothing `Lowess(5)`
   <dbl>        <dbl>       <dbl>
 1  1880        -0.17       -0.1 
 2  1881        -0.09       -0.13
 3  1882        -0.11       -0.17
 4  1883        -0.17       -0.2 
 5  1884        -0.28       -0.24
 6  1885        -0.33       -0.26
 7  1886        -0.31       -0.27
 8  1887        -0.36       -0.27
 9  1888        -0.17       -0.26
10  1889        -0.11       -0.26
# ℹ 135 more rows
…
What is the meaning of “5-year average” vs. “annual average”?

Create a data frame from the annual temperature anomaly data (from Question 4) with three new columns: 5-year running averages, 10-year running averages, and 20-year running averages.

library(dplyr)
library(zoo)

avg_temp_roll <- temp_data %>%
  mutate(roll_5_year = rollmean(No_Smoothing, k = 5, fill = NA, align = "center"),
         roll_10_year = rollmean(No_Smoothing, k = 10, fill = NA, align = "center"),
         roll_20_year = rollmean(No_Smoothing, k = 20, fill = NA, align = "center"))
avg_temp_roll

# A tibble: 145 × 6
    Year No_Smoothing `Lowess(5)` roll_5_year roll_10_year roll_20_year
   <dbl>        <dbl>       <dbl>       <dbl>        <dbl>        <dbl>
 1  1880        -0.17       -0.1       NA           NA           NA    
 2  1881        -0.09       -0.13      NA           NA           NA    
 3  1882        -0.11       -0.17      -0.164       NA           NA    
 4  1883        -0.17       -0.2       -0.196       NA           NA    
 5  1884        -0.28       -0.24      -0.24        -0.21        NA    
 6  1885        -0.33       -0.26      -0.29        -0.228       NA    
 7  1886        -0.31       -0.27      -0.29        -0.241       NA    
 8  1887        -0.36       -0.27      -0.256       -0.257       NA    
 9  1888        -0.17       -0.26      -0.26        -0.271       NA    
10  1889        -0.11       -0.26      -0.242       -0.273       -0.222
# ℹ 135 more rows
…
